<?xml version="1.0" standalone="no"?>
<!DOCTYPE svg PUBLIC "-//W3C//DTD SVG 20010904//EN"
 "http://www.w3.org/TR/2001/REC-SVG-20010904/DTD/svg10.dtd">
<svg version="1.0" xmlns="http://www.w3.org/2000/svg"
 width="505.000000pt" height="505.000000pt" viewBox="0 0 505.000000 505.000000"
 preserveAspectRatio="xMidYMid meet">
<metadata>
Created by potrace 1.14, written by Peter Selinger 2001-2017
</metadata>
<g transform="translate(0.000000,505.000000) scale(0.100000,-0.100000)"
fill="#000000" stroke="none">
<path d="M280 4383 c-18 -33 -93 -157 -141 -233 -78 -123 -119 -193 -117 -196
2 -1 451 -5 998 -7 982 -3 996 -4 1072 -25 227 -63 337 -180 375 -399 14 -85
14 -217 -2 -288 -24 -111 -117 -329 -191 -447 -168 -267 -493 -511 -824 -617
-134 -43 -380 -80 -380 -58 0 9 58 200 90 297 10 30 27 84 38 120 26 84 65
207 232 740 75 239 135 437 134 439 -3 3 -552 5 -636 2 -24 -1 -28 -8 -56 -98
-17 -54 -65 -208 -107 -343 -107 -342 -263 -843 -285 -915 -20 -65 -54 -174
-101 -325 -16 -52 -38 -123 -49 -157 l-19 -63 22 -1 c202 -8 848 3 914 15 11
2 46 7 78 10 32 4 61 8 64 10 3 2 28 7 54 10 125 17 354 82 522 148 433 171
779 438 1007 778 254 380 333 761 220 1070 -16 45 -56 124 -75 148 -6 8 -5 12
4 13 87 5 1177 0 1214 -6 75 -12 74 -12 100 -29 77 -51 89 -181 26 -304 -42
-83 -163 -184 -307 -256 -107 -53 -334 -128 -334 -109 0 3 18 65 41 137 104
336 126 411 122 416 -2 3 -96 5 -209 5 l-204 0 -36 -115 c-19 -63 -39 -126
-44 -140 -4 -14 -16 -50 -25 -80 -39 -125 -158 -511 -182 -585 -13 -44 -38
-127 -55 -185 -35 -123 -114 -380 -240 -785 -50 -159 -93 -300 -95 -313 -3
-12 -8 -24 -12 -26 -4 -3 -72 -6 -151 -7 -264 -4 -422 -31 -582 -99 -188 -80
-343 -241 -402 -420 -24 -72 -25 -188 -2 -258 34 -102 139 -182 284 -216 120
-28 353 -13 487 31 177 57 355 182 476 333 85 105 176 259 235 398 l18 42 193
0 c106 0 193 -3 193 -7 0 -5 -16 -53 -36 -108 -20 -55 -51 -143 -69 -195 -19
-52 -50 -139 -69 -194 -20 -54 -36 -100 -36 -102 0 -2 94 -4 210 -4 189 0 210
2 218 17 5 10 26 68 47 128 20 61 41 119 46 130 8 19 62 175 97 280 l17 50
400 5 c437 6 439 6 497 67 25 26 58 90 58 113 0 7 -144 10 -440 10 -242 0
-440 3 -440 7 0 7 113 329 181 518 89 247 116 325 110 326 -3 0 -98 1 -210 1
l-205 1 -14 -34 c-26 -61 -34 -84 -157 -439 -25 -74 -50 -144 -54 -155 -9 -20
-69 -189 -76 -212 -3 -10 -53 -13 -203 -13 l-199 0 62 203 c35 111 101 326
148 477 79 253 117 379 123 405 1 6 27 86 56 180 l53 169 40 9 c126 27 262 63
345 90 52 17 97 31 100 32 11 1 129 50 198 81 41 19 75 34 78 34 2 0 43 23 91
51 195 115 321 240 377 373 23 56 28 82 32 172 6 150 -45 251 -157 317 -49 29
-115 54 -163 63 -17 3 -44 8 -61 12 -16 3 -453 7 -970 9 -899 4 -942 5 -992
23 -60 22 -192 57 -249 65 -21 4 -50 9 -64 13 -14 3 -480 7 -1037 9 l-1012 4
-21 -38z m2540 -2945 c0 -13 -50 -130 -85 -200 -137 -273 -287 -416 -441 -419
-95 -3 -139 57 -132 176 9 145 92 261 248 348 70 38 171 74 247 87 45 7 163
13 163 8z"/>
</g>
</svg>
